…
## # A tibble: 1 x 1
##   dest 
##   <chr>
## 1 HNL

"HNL has the longest air time"

## [1] "HNL has the longest air time"

(c) (4 pts) Find the mean, standard deviation, count, and standard error of distance in each month of each year (average across day) for flights from the three different New York airports (origin). You will use your sd and count to fine your se (\(sd/\sqrt{count}\)). Rename your summary variables inside of summarize().

result <-flightsWithoutNA %>% group_by(origin,month,year) %>% summarize(meanDist = mean(distance), Sd = sd(distance), count = n(), Se = Sd/sqrt(count))
result

## # A tibble: 36 x 7
## # Groups:   origin, month [36]
##    origin month  year meanDist    Sd count    Se
##    <chr>  <int> <int>    <dbl> <dbl> <int> <dbl>
##  1 EWR        1  2013     970.  692.  9616  7.05
##  2 EWR        2  2013     964.  682.  8575  7.36
##  3 EWR        3  2013     988.  673. 10015  6.72
##  4 EWR        4  2013    1052.  720. 10231  7.12
##  5 EWR        5  2013    1065.  750. 10303  7.39
##  6 EWR        6  2013    1110.  764.  9736  7.74
##  7 EWR        7  2013    1114.  754. 10126  7.49
##  8 EWR        8  2013    1122.  762. 10144  7.57
##  9 EWR        9  2013    1098.  756.  9362  7.81
## 10 EWR       10  2013    1083.  740. 10006  7.39
## # … with 26 more rows
…
#ggplot(result,aes(month,meanDist)) +
  #geom_bar(stat = "summary")+ geom_errorbar(stat = "summary") +  facet_wrap(~origin) +
  #scale_x_continuous(breaks=1:12)

From the barplots above, other than EWR, JFK and LGA both show some level of uniform average throughout the year. JFK has the largest average mean distance in these three barplots. LGA has the smallest mean distance and also the smallest standard error of distance in these three barplots.

Question 2 (2 pts)

Let’s do some joining! The dataset airlines contains the full name of the carrier (examine it!). Join the dataset with the flights dataset so all of the information in flights is retained. Using the merged dataset, which carrier (name) has the longest average departure delay? Which has the shortest?

data(airlines)
mergedAirLines <- left_join(flightsWithoutNA, airlines)
mergedAirLines

## # A tibble: 327,346 x 20
##     year month   day dep_time sched_dep_time dep_delay arr_time
##    <int> <int> <int>    <int>          <int>     <dbl>    <int>
##  1  2013     1     1      517            515         2      830
##  2  2013     1     1      533            529         4      850
##  3  2013     1     1      542            540         2      923
##  4  2013     1     1      544            545        -1     1004
##  5  2013     1     1      554            600        -6      812
##  6  2013     1     1      554            558        -4      740
##  7  2013     1     1      555            600        -5      913
##  8  2013     1     1      557            600        -3      709
##  9  2013     1     1      557            600        -3      838
## 10  2013     1     1      558            600        -2      753
## # … with 327,336 more rows, and 13 more variables: sched_arr_time <int>,
## #   arr_delay <dbl>, carrier <chr>, flight <int>, tailnum <chr>,
## #   origin <chr>, dest <chr>, air_time <dbl>, distance <dbl>, hour <dbl>,
## #   minute <dbl>, time_hour <dttm>, name <chr>
…
