Project 1: Exploratory Data Analysis
…
library(ggplot2)

## Warning: package 'ggplot2' was built under R version 3.5.2

library(fivethirtyeight)

## Warning: package 'fivethirtyeight' was built under R version 3.5.2

library(tidyr)

## Warning: package 'tidyr' was built under R version 3.5.2

police_killings        

## # A tibble: 467 x 34
##    name    age gender raceethnicity month   day  year streetaddress city 
##    <chr> <int> <chr>  <chr>         <chr> <int> <int> <chr>         <chr>
##  1 A'do…    16 Male   Black         Febr…    23  2015 Clearview Ln  Mill…
##  2 Aaro…    27 Male   White         April     2  2015 300 block Ir… Pine…
##  3 Aaro…    26 Male   White         March    14  2015 22nd Ave and… Keno…
##  4 Aaro…    25 Male   Hispanic/Lat… March    11  2015 3000 Seminol… Sout…
##  5 Adam…    29 Male   White         March    19  2015 364 Hiwood A… Munr…
##  6 Adam…    29 Male   White         March     7  2015 18th St and … Phoe…
##  7 Adri…    22 Male   Hispanic/Lat… March    27  2015 4000 Union A… Bake…
##  8 Adri…    35 Male   Hispanic/Lat… March    26  2015 1500 Bayview… Wilm…
##  9 Alan…    44 Male   White         Janu…    28  2015 Pickett Runn… Suns…
## 10 Alan…    31 Male   White         Febr…     7  2015 200 Abbie St… Wyom…
## # … with 457 more rows, and 25 more variables: state <chr>,
## #   latitude <dbl>, longitude <dbl>, state_fp <int>, county_fp <int>,
## #   tract_ce <int>, geo_id <dbl>, county_id <int>, namelsad <chr>,
## #   lawenforcementagency <chr>, cause <chr>, armed <chr>, pop <int>,
## #   share_white <dbl>, share_black <dbl>, share_hispanic <dbl>,
## #   p_income <int>, h_income <int>, county_income <int>,
## #   comp_income <dbl>, county_bucket <int>, nat_bucket <int>, pov <dbl>,
## #   urate <dbl>, college <dbl>
…
I use police_killings and police_locals as my two datasets for this project. I acquired the datasets from R package. police_killings have 467 observation representing people who died from interactions with police in 2015. There are 34 variables, including name, age, gender etc. I plan to select some variables form these dataset that associated with the variabe with my second dataset, police_locals. Police_locals dataset represening the percentage of the police that live in the cities they serve. There are 75 observations and 8 variables includeing city, force_size, all, and 5 different races. Missing values in this dataset mean that there are fewer than 100 police officers of that race serving that city. The reason that these two dataset are interesting to me is that I want to know whether the police kill more people in the city that they serve and the correlation of the total force size and the number of fatal cases.

police_killings_tidy <- police_killings %>% select(city,state,age,gender,"killedRace"= raceethnicity)
police_killings_tidy

## # A tibble: 467 x 5
##    city         state   age gender killedRace     
##    <chr>        <chr> <int> <chr>  <chr>          
##  1 Millbrook    AL       16 Male   Black          
##  2 Pineville    LA       27 Male   White          
##  3 Kenosha      WI       26 Male   White          
##  4 South Gate   CA       25 Male   Hispanic/Latino
##  5 Munroe Falls OH       29 Male   White          
##  6 Phoenix      AZ       29 Male   White          
##  7 Bakersfield  CA       22 Male   Hispanic/Latino
##  8 Wilmington   CA       35 Male   Hispanic/Latino
##  9 Sunset       TX       44 Male   White          
## 10 Wyoming      MI       31 Male   White          
## # … with 457 more rows

police_locals_tidy <- police_locals %>% pivot_longer(cols = c(3:8), names_to = "PoliceRace", values_to = "per_live_local") %>% group_by(city) %>% filter(PoliceRace == "all")
police_locals_tidy <- police_locals_tidy %>% select(-PoliceRace)
police_locals_tidy

## # A tibble: 75 x 3
## # Groups:   city [75]
##    city         force_size per_live_local
##    <chr>             <int>          <dbl>
##  1 New York          32300          0.618
##  2 Chicago           12120          0.875
##  3 Los Angeles       10100          0.228
##  4 Washington         9340          0.116
##  5 Houston            7700          0.292
##  6 Philadelphia       6045          0.835
##  7 Phoenix            4475          0.312
##  8 San Diego          4460          0.362
##  9 Dallas             3605          0.191
## 10 Detroit            3265          0.371
## # … with 65 more rows

For police_killings, I select variables city, state, age, gender, and raceethnicity and assigne a new dataset called police_killings_tidy. I rename raceethnicity to killedRace. I think these variables are assiciated with the police_locals dataset. For police_locals dataset. I use pivot_longer to tidy the dataset as names_to = “race”, values_to = “per_live_local”. I assign the tidy version to a new name called police_locals_tidy. I filter PoliceRace == “all” in order to see the overall percentage of the police that serve in the city. Then I unselect PoliceRace to get my final police_locals_tidy dataset.

LeftJoin <- left_join(police_killings_tidy,police_locals_tidy, by=c("city" = "city"))
LeftJoin

## # A tibble: 467 x 7
##    city         state   age gender killedRace     force_size per_live_local
##    <chr>        <chr> <int> <chr>  <chr>               <int>          <dbl>
##  1 Millbrook    AL       16 Male   Black                  NA         NA    
##  2 Pineville    LA       27 Male   White                  NA         NA    
##  3 Kenosha      WI       26 Male   White                  NA         NA    
##  4 South Gate   CA       25 Male   Hispanic/Lati…         NA         NA    
##  5 Munroe Falls OH       29 Male   White                  NA         NA    
##  6 Phoenix      AZ       29 Male   White                4475          0.312
##  7 Bakersfield  CA       22 Male   Hispanic/Lati…         NA         NA    
##  8 Wilmington   CA       35 Male   Hispanic/Lati…         NA         NA    
##  9 Sunset       TX       44 Male   White                  NA         NA    
## 10 Wyoming      MI       31 Male   White                  NA         NA    
## # … with 457 more rows

I use “left_join(police_killings_tidy,police_locals_tidy, by=c(”city" = “city”))" to join my datasets becuase both datasets have variable “city”. The police_killings dataset has the variables per_live_local and force_size, which are the variables I want to observe. Therefore, using left join can keep these variables in the merged dataset (LeftJoint).

# Use all six core dplyr functions (filter, select, arrange, group_by, mutate, summarize) to manipulate and explore your dataset.
LeftJoin <-LeftJoin  %>% filter(per_live_local != "NA") %>% select(-state) 
LeftJoin

## # A tibble: 61 x 6
##    city            age gender killedRace      force_size per_live_local
##    <chr>         <int> <chr>  <chr>                <int>          <dbl>
##  1 Phoenix          29 Male   White                 4475          0.312
##  2 Houston          NA Male   Hispanic/Latino       7700          0.292
##  3 Indianapolis     23 Male   White                 1620          0.648
##  4 Atlanta          25 Female Black                 2950          0.137
##  5 San Francisco    24 Female White                 3020          0.316
##  6 San Francisco    57 Male   Black                 3020          0.316
##  7 San Francisco    21 Male   Hispanic/Latino       3020          0.316
##  8 Los Angeles      32 Male   Hispanic/Latino      10100          0.228
##  9 Atlanta          62 Male   Black                 2950          0.137
## 10 Washington       35 Male   Black                 9340          0.116
## # … with 51 more rows
…
LeftJoin

## # A tibble: 61 x 7
##    city      age gender killedRace force_size per_live_local pol_Live_local
##    <chr>   <int> <chr>  <chr>           <int>          <dbl>          <dbl>
##  1 Phoenix    29 Male   White            4475          0.312           1395
##  2 Houston    NA Male   Hispanic/…       7700          0.292           2250
##  3 Indian…    23 Male   White            1620          0.648           1050
##  4 Atlanta    25 Female Black            2950          0.137            405
##  5 San Fr…    24 Female White            3020          0.316            955
##  6 San Fr…    57 Male   Black            3020          0.316            955
##  7 San Fr…    21 Male   Hispanic/…       3020          0.316            955
##  8 Los An…    32 Male   Hispanic/…      10100          0.228           2305
##  9 Atlanta    62 Male   Black            2950          0.137            405
## 10 Washin…    35 Male   Black            9340          0.116           1080
## # … with 51 more rows

# Compute at least 10 different summary statistics using 
# summarize and summarize with group_by 
# At least 2 of these should group by a categorical variable

# 1.--> mean age was calculated and group by city.
LeftJoin%>% group_by(city)%>% summarise(meanAgeKilled = mean(age)) %>% arrange(meanAgeKilled)

## # A tibble: 22 x 2
##    city          meanAgeKilled
##    <chr>                 <dbl>
##  1 Denver                 17  
##  2 Chicago                18  
##  3 Detroit                22.5
##  4 Baltimore              25.5
##  5 New Orleans            29.5
##  6 San Francisco          33.5
##  7 Phoenix                34.2
##  8 Indianapolis           34.2
##  9 Washington             35  
## 10 Los Angeles            35.6
## # … with 12 more rows
…
## # A tibble: 5 x 2
##   killedRace                 n
##   <chr>                  <int>
## 1 Asian/Pacific Islander     2
## 2 Black                     27
## 3 Hispanic/Latino           16
## 4 Native American            1
## 5 White                     15

# 4. --> I summarise the number of cases in each city and group by city, force size and the number of police that live in that city.
LeftJoin %>% group_by(city, force_size, pol_Live_local) %>% summarise(case=n()) %>%
  arrange(desc(case))

## # A tibble: 22 x 4
## # Groups:   city, force_size [22]
##    city          force_size pol_Live_local  case
##    <chr>              <int>          <dbl> <int>
##  1 Los Angeles        10100           2305     9
##  2 Houston             7700           2250     6
##  3 Phoenix             4475           1395     6
##  4 Indianapolis        1620           1050     4
##  5 New York           32300          19960     4
##  6 San Francisco       3020            955     4
##  7 Atlanta             2950            405     3
##  8 San Antonio         2955           1845     3
##  9 Baltimore           2800            720     2
## 10 Cleveland           2045           1140     2
## # … with 12 more rows
…
##                per_live_local force_size killingCase
## per_live_local      1.0000000  0.2185134  -0.1614243
## force_size          0.2185134  1.0000000   0.2748406
## killingCase        -0.1614243  0.2748406   1.0000000

I drop the rows which have NA in the per_love_local variable. This can simplfy the merged dataset (LeftJoin) but might also drop some observation. I also unselect the variable “state” becuase the per_live_local is the variable that the percentage of police in the city, not state. 
I use mutate to generate the police size (pol_Live_local) in the city and round the per_live_local and pol_Live_local.
Mean age was calculated and group by city. I also summarise the people that were killed in 2015 by police and group by gender.Another grouping is based on race. I summarise the number of cases in each city and group by city, force size and the number of police that live in that city. I summarise the number of cases in each city and group by city, force size and the number of police that live in that city so that I can obersve the relationship between the police size and number of case in the city.
I calculate the mean of the police force size in this 22 cities. Finally, I create a correlation matrix

CaseNumber<-LeftJoin %>% group_by(city, force_size, pol_Live_local,per_live_local) %>% summarise(case=n()) %>%
  arrange(desc(case))
CaseNumber

## # A tibble: 22 x 5
## # Groups:   city, force_size, pol_Live_local [22]
##    city          force_size pol_Live_local per_live_local  case
##    <chr>              <int>          <dbl>          <dbl> <int>
##  1 Los Angeles        10100           2305          0.228     9
##  2 Houston             7700           2250          0.292     6
##  3 Phoenix             4475           1395          0.312     6
##  4 Indianapolis        1620           1050          0.648     4
##  5 New York           32300          19960          0.618     4
##  6 San Francisco       3020            955          0.316     4
##  7 Atlanta             2950            405          0.137     3
##  8 San Antonio         2955           1845          0.624     3
##  9 Baltimore           2800            720          0.257     2
## 10 Cleveland           2045           1140          0.557     2
## # … with 12 more rows

Forplot <-CaseNumber %>% select(city,force_size,case) 

## Adding missing grouping variables: `pol_Live_local`

Forplot

## # A tibble: 22 x 4
## # Groups:   city, force_size, pol_Live_local [22]
##    pol_Live_local city          force_size  case
##             <dbl> <chr>              <int> <int>
##  1           2305 Los Angeles        10100     9
##  2           2250 Houston             7700     6
##  3           1395 Phoenix             4475     6
##  4           1050 Indianapolis        1620     4
##  5          19960 New York           32300     4
##  6            955 San Francisco       3020     4
##  7            405 Atlanta             2950     3
##  8           1845 San Antonio         2955     3
##  9            720 Baltimore           2800     2
## 10           1140 Cleveland           2045     2
## # … with 12 more rows
…
I create another dataset called CaseNumber. This dataset includes the case happened in each city. The CaseNumber dataset will be modified to two dataset, Forplot and Forplot2 to gerenate the plots. Plot1 is the histogram of Fatal Interaction Cases vs. Police Force Size. the x axis is Number of Police killing case, the y axis is police force size. The bars are colored based on different cities.
For plot2 is the scatter plot of Ploices Live in Local (in hundred) vs. Fatal Interaction Cases. x axis is the nuber of police live in city they serve and the y axis is the numbr of police killing case. Based on this plot we can see clearly that the number of plice live in the city is not positive correlation with the number of police killing case.

library(cluster)

## Warning: package 'cluster' was built under R version 3.5.2

Project_clust_data <- CaseNumber%>%ungroup() %>% select(-city)%>%dplyr::select(force_size, pol_Live_local,case)
Project_clust_data 

## # A tibble: 22 x 3
##    force_size pol_Live_local  case
##         <int>          <dbl> <int>
##  1      10100           2305     9
##  2       7700           2250     6
##  3       4475           1395     6
##  4       1620           1050     4
##  5      32300          19960     4
##  6       3020            955     4
##  7       2950            405     3
##  8       2955           1845     3
##  9       2800            720     2
## 10       2045           1140     2
## # … with 12 more rows
…
Project_kmeans_clust<-Project_clust_data%>%mutate(cluster=as.factor(Project_kmeans1$cluster))
Project_kmeans_clust

## # A tibble: 22 x 4
##    force_size pol_Live_local  case cluster
##         <int>          <dbl> <int> <fct>  
##  1      10100           2305     9 1      
##  2       7700           2250     6 1      
##  3       4475           1395     6 2      
##  4       1620           1050     4 2      
##  5      32300          19960     4 3      
##  6       3020            955     4 2      
##  7       2950            405     3 2      
##  8       2955           1845     3 2      
##  9       2800            720     2 2      
## 10       2045           1140     2 2      
## # … with 12 more rows
…
