HW 7
…
The result SE from boostrap is 0.02601614. It is similart to the result if 1b 0.0254661 and we still reject the null.

Question 2a (3 pts)

Using the msleep data (in ggplot2), regress sleep_rem on the interaction of brainwt and vore. Interpret the intercept in context. Interpret the coefficient brainwt in context. Interpret the coefficient for voreinsecti in context. Interpret the coefficient for brainwt:voreinsecti (Ignore significance, etc.)

library(tidyverse)
msleep

## # A tibble: 83 x 11
##    name  genus vore  order conservation sleep_total sleep_rem sleep_cycle
##    <chr> <chr> <chr> <chr> <chr>              <dbl>     <dbl>       <dbl>
##  1 Chee… Acin… carni Carn… lc                  12.1      NA        NA    
##  2 Owl … Aotus omni  Prim… <NA>                17         1.8      NA    
##  3 Moun… Aplo… herbi Rode… nt                  14.4       2.4      NA    
##  4 Grea… Blar… omni  Sori… lc                  14.9       2.3       0.133
##  5 Cow   Bos   herbi Arti… domesticated         4         0.7       0.667
##  6 Thre… Brad… herbi Pilo… <NA>                14.4       2.2       0.767
##  7 Nort… Call… carni Carn… vu                   8.7       1.4       0.383
##  8 Vesp… Calo… <NA>  Rode… <NA>                 7        NA        NA    
##  9 Dog   Canis carni Carn… domesticated        10.1       2.9       0.333
## 10 Roe … Capr… herbi Arti… lc                   3        NA        NA    
## # … with 73 more rows, and 3 more variables: awake <dbl>, brainwt <dbl>,
## #   bodywt <dbl>
…
When the animal is carnivore and no brain weight, the amount of rem sleep of animal would be 2.47 hr. When we control the brain weight, there is no different in rem sleep between animal eanting insect and animal take other type of food source. When we control the food sourc, there is no different of brain weight on rem sleep. The brain weight and voreinsecti:brainwt are significantly different based on the level of vore.

Question 2b (2 pts)

Rerun the same regression as above, but center the brainwt variable first by subtracting the mean (use na.rm=T). Which coefficients that you interpreted in 3a (above) changed? Why? Reinterpret any coefficient from part 3a that changed. (Ignore significance, etc.)

msleep

## # A tibble: 83 x 11
##    name  genus vore  order conservation sleep_total sleep_rem sleep_cycle
##    <chr> <chr> <chr> <chr> <chr>              <dbl>     <dbl>       <dbl>
##  1 Chee… Acin… carni Carn… lc                  12.1      NA        NA    
##  2 Owl … Aotus omni  Prim… <NA>                17         1.8      NA    
##  3 Moun… Aplo… herbi Rode… nt                  14.4       2.4      NA    
##  4 Grea… Blar… omni  Sori… lc                  14.9       2.3       0.133
##  5 Cow   Bos   herbi Arti… domesticated         4         0.7       0.667
##  6 Thre… Brad… herbi Pilo… <NA>                14.4       2.2       0.767
##  7 Nort… Call… carni Carn… vu                   8.7       1.4       0.383
##  8 Vesp… Calo… <NA>  Rode… <NA>                 7        NA        NA    
##  9 Dog   Canis carni Carn… domesticated        10.1       2.9       0.333
## 10 Roe … Capr… herbi Arti… lc                   3        NA        NA    
## # … with 73 more rows, and 3 more variables: awake <dbl>, brainwt <dbl>,
## #   bodywt <dbl>
…
